{
	"name": "CodeMirror",
	"description": "CodeMirror is a versatile text editor implemented in JavaScript for the browser. It is specialized for editing code, and comes with a number of language modes and addons that implement more advanced editing functionality.",
	"autor": "kekub"
}
