{
	"name": "Medienverwaltung",
	"description": "Verwaltungsmodul für alle Medien im IV 5",
	"autor": "Wit",

	"scripts": {
	},

	"moduls": [
		{
			"file": "iv.media",
			"icon": "download.png",
			"name": "Medienverwaltung"
		}
	]
}